Case Study 01
…
Analysis Questions: 1.How many breweries are present in each state?

#1.How many breweries are present in each state?
st_count = brew %>% group_by(State) %>% summarize(Count =n_distinct(Brew_ID))
st_count

## # A tibble: 51 x 2
##    State Count
##    <chr> <int>
##  1 AK        7
##  2 AL        3
##  3 AR        2
##  4 AZ       11
##  5 CA       39
##  6 CO       47
##  7 CT        8
##  8 DC        1
##  9 DE        2
## 10 FL       15
## # ... with 41 more rows
…
